{
  "file_generated_by": "FlutterFire CLI",
  "purpose": "FirebaseAppID & ProjectID for this Firebase app in this directory",
  "GOOGLE_APP_ID": "1:1057055208181:ios:afad9ecec81a06677b4bbc",
  "FIREBASE_PROJECT_ID": "chow-time-7341f",
  "GCM_SENDER_ID": "1057055208181"
}